%YAML 1.1
%TAG !u! tag:unity3d.com,2011:
--- !u!114 &11400000
MonoBehaviour:
  m_ObjectHideFlags: 0
  m_PrefabParentObject: {fileID: 0}
  m_PrefabInternal: {fileID: 0}
  m_GameObject: {fileID: 0}
  m_Enabled: 0
  m_EditorHideFlags: 0
  m_Script: {fileID: 11500000, guid: e59568fa58e839844844436e2ca7a8ec, type: 3}
  m_Name: Epic Inmba Track
  m_EditorClassIdentifier: 
  objectName: Track Manager
  debugNearest: {x: -20, y: 4}
  nodes:
  - x: 2.3957233
    y: 15.203348
  - x: 5.466895
    y: 10.851651
  - x: 10.499741
    y: 6.631012
  - x: 15.533385
    y: 4.754303
  - x: 5.473151
    y: 0.9495058
  - x: -2.27952
    y: -0.537364
