%YAML 1.1
%TAG !u! tag:unity3d.com,2011:
--- !u!114 &11400000
MonoBehaviour:
  m_ObjectHideFlags: 0
  m_PrefabParentObject: {fileID: 0}
  m_PrefabInternal: {fileID: 0}
  m_GameObject: {fileID: 0}
  m_Enabled: 1
  m_EditorHideFlags: 0
  m_Script: {fileID: 11500000, guid: 7cce2f46f387b0448aba84520174edbf, type: 3}
  m_Name: Ford Bronco Pickup
  m_EditorClassIdentifier: 
  CarName: 
  ModelName: 
  WeaponName: 
  SpecialName: 
  Speed: 100
  Turbo: 100
  Acceleration: 50
  WeaponRange: 8
  AttackCooldown: 1
  CurrenHealth: 100
  Cost: 0
  Armour: 20
  MaxHealth: 100
  Damage: 5
  CollisionDamage: 0
  LobbyUiData: {fileID: 11400000, guid: 306ea67b7fc602141aa462fa0cb66044, type: 2}
  OriginalSpeed: 0
  VisualPrefab: {fileID: 1471638356774926, guid: 8cc4afc6db6b6634c951ba0365d2c6b0,
    type: 2}
  MyController: {fileID: 0}
  StartUpgrades:
  - {fileID: 11400000, guid: 87b495ff98aead9459808448f890228b, type: 2}
  UpgradeListForUI: []
  CurrentAmmo: 10
  MaxAmmo: 10
  HarpoonCooldown: 5
  CannonBallSpeed: 6
  CannonBallKnockBackForce: 4
  CannonBallPrefab: {fileID: 1832597411378442, guid: aed2dd369058f1c4eacfdc38fbaea0c0,
    type: 2}
