%YAML 1.1
%TAG !u! tag:unity3d.com,2011:
--- !u!114 &11400000
MonoBehaviour:
  m_ObjectHideFlags: 0
  m_PrefabParentObject: {fileID: 0}
  m_PrefabInternal: {fileID: 0}
  m_GameObject: {fileID: 0}
  m_Enabled: 1
  m_EditorHideFlags: 0
  m_Script: {fileID: 11500000, guid: 0acc802fe81c66d479efd3bd09ffa629, type: 3}
  m_Name: Trans Am
  m_EditorClassIdentifier: 
  CarName: 
  ModelName: 
  WeaponName: 
  SpecialName: 
  Speed: 100
  Turbo: 0
  Acceleration: 50
  WeaponRange: 10
  AttackCooldown: 0.2
  CurrenHealth: 100
  Cost: 0
  Armour: 20
  MaxHealth: 100
  Damage: 4
  CollisionDamage: 2
  LobbyUiData: {fileID: 11400000, guid: 3000a13241d14d54986959909c356c66, type: 2}
  OriginalSpeed: 100
  VisualPrefab: {fileID: 1124600203294974, guid: cccd6b436131b594087691237e877429,
    type: 2}
  MyController: {fileID: 0}
  StartUpgrades: []
  UpgradeListForUI: []
  CurrentEnergy: 100
  LaserCost: 100
  ShieldCost: 100
  ShieldTime: 2
  LazerBredth: 4
  LazerParticle: {fileID: 1072716630549386, guid: 864ec0f6a55ceea41a0682bceade360e,
    type: 2}
  LazerLineRenderer: {fileID: 1463001244601868, guid: b3c97efe31f3ee949860da19a701eecd,
    type: 2}
  ShieldPrefab: {fileID: 0}
  LazerDuration: 1
